6 Connectivity – Introduction to Social Network Analysis
…
In this case, we see that there is only one geodesic path between students 9 and 1: 9 - 11 - 5 - 1. In other instances, we might find several geodesic paths. If we are only interested in the geodesic distance, rather than the specific path, the following command can be used.

distances(moreno2, v = "9", to = "1")

     [,1]
[1,]    3

The distance value (3) is presented as a matrix (a distance matrix). Without referencing specific vertices in the command, the function returns a matrix for all i,j combinations within the network.

distmat <- distances(moreno2)
as_tibble(distmat)

# A tibble: 31 × 31
      V1    V2    V3    V4    V5    V6    V7    V8    V9   V10   V11   V12   V13
   <dbl> <dbl> <dbl> <dbl> <dbl> <dbl> <dbl> <dbl> <dbl> <dbl> <dbl> <dbl> <dbl>
 1     0     1     2     3     1     1     3     4     3     4     2     6     6
 2     1     0     1     2     2     2     2     3     3     4     3     6     6
 3     2     1     0     1     3     3     1     2     2     3     3     5     5
 4     3     2     1     0     4     4     1     1     2     3     3     5     5
 5     1     2     3     4     0     1     3     4     2     3     1     5     5
 6     1     2     3     4     1     0     4     5     3     4     2     6     6
 7     3     2     1     1     3     4     0     1     1     2     2     4     4
 8     4     3     2     1     4     5     1     0     2     3     3     5     5
 9     3     3     2     2     2     3     1     2     0     1     1     3     3
10     4     4     3     3     3     4     2     3     1     0     2     2     2
# ℹ 21 more rows
# ℹ 18 more variables: V14 <dbl>, V15 <dbl>, V16 <dbl>, V17 <dbl>, V18 <dbl>,
#   V19 <dbl>, V20 <dbl>, V21 <dbl>, V22 <dbl>, V23 <dbl>, V24 <dbl>,
#   V25 <dbl>, V26 <dbl>, V27 <dbl>, V28 <dbl>, V29 <dbl>, V30 <dbl>, V31 <dbl>
…
